…
# A tibble: 4,165 x 8
# Groups:   Location [4,165]
     CHR      POS SNP                  P  Effect StdErr Location   leadSNP
   <int>    <int> <chr>            <dbl>   <dbl>  <dbl> <chr>      <lgl>  
 1     8 26720059 rs139074739     0.706   0.0515 0.137  8:26720059 FALSE  
 2     8 26720153 rs73231599      0.0485 -0.0634 0.0322 8:26720153 FALSE  
 3     8 26720169 rs494364        0.253   0.0402 0.0351 8:26720169 FALSE  
 4     8 26720282 rs189546321     0.113   0.449  0.284  8:26720282 FALSE  
 5     8 26720392 rs471188        0.253   0.0402 0.0351 8:26720392 FALSE  
 6     8 26720449 rs10503801      0.215   0.0398 0.0321 8:26720449 FALSE  
 7     8 26720490 rs580644        0.0223 -0.0556 0.0243 8:26720490 FALSE  
 8     8 26720515 rs17056112      0.413  -0.0406 0.0496 8:26720515 FALSE  
 9     8 26720534 chr8:26720534:I 0.0507 -0.0628 0.0321 8:26720534 FALSE  
10     8 26720750 rs190920825     0.251  -0.172  0.150  8:26720750 FALSE  
#  with 4,155 more rows
…
# A tibble: 4,165 x 8
# Groups:   Location [4,165]
     CHR      POS SNP                  P  Effect StdErr Location   leadSNP
   <int>    <int> <chr>            <dbl>   <dbl>  <dbl> <chr>      <lgl>  
 1     8 26720059 rs139074739     0.706   0.0515 0.137  8:26720059 FALSE  
 2     8 26720153 rs73231599      0.0485 -0.0634 0.0322 8:26720153 FALSE  
 3     8 26720169 rs494364        0.253   0.0402 0.0351 8:26720169 FALSE  
 4     8 26720282 rs189546321     0.113   0.449  0.284  8:26720282 FALSE  
 5     8 26720392 rs471188        0.253   0.0402 0.0351 8:26720392 FALSE  
 6     8 26720449 rs10503801      0.215   0.0398 0.0321 8:26720449 FALSE  
 7     8 26720490 rs580644        0.0223 -0.0556 0.0243 8:26720490 FALSE  
 8     8 26720515 rs17056112      0.413  -0.0406 0.0496 8:26720515 FALSE  
 9     8 26720534 chr8:26720534:I 0.0507 -0.0628 0.0321 8:26720534 FALSE  
10     8 26720750 rs190920825     0.251  -0.172  0.150  8:26720750 FALSE  
#  with 4,155 more rows
…
